[gd_resource type="Resource" script_class="BattleStatisticBuff" load_steps=2 format=3 uid="uid://dao2vph3ewm52"]

[ext_resource type="Script" path="res://scripts/creature/battle_statistic_buff.gd" id="1_6um0x"]

[resource]
script = ExtResource("1_6um0x")
types = Array[int]([0])
value_buff = 2
mod_buff = 0
