[gd_scene load_steps=3 format=3 uid="uid://b6fi2m4hckyev"]

[ext_resource type="Script" path="res://scripts/event_bar.gd" id="1_5c6mg"]
[ext_resource type="Texture2D" uid="uid://b0i8v8pv6sf3m" path="res://assets/UI/PaneBackground.png" id="1_bjw1g"]

[node name="EventBar" type="Node2D"]
script = ExtResource("1_5c6mg")

[node name="PaneBackground" type="Sprite2D" parent="."]
texture = ExtResource("1_bjw1g")

[node name="Control" type="MarginContainer" parent="."]
offset_left = -254.0
offset_top = -59.0
offset_right = 254.0
offset_bottom = 59.0

[node name="ScrollContainer" type="ScrollContainer" parent="Control"]
layout_mode = 2
horizontal_scroll_mode = 0

[node name="entryTree" type="Tree" parent="Control/ScrollContainer"]
layout_mode = 2
size_flags_horizontal = 3
size_flags_vertical = 3
theme_override_font_sizes/font_size = 26
allow_search = false
hide_folding = true
hide_root = true
