[gd_resource type="Resource" script_class="DamageType" load_steps=3 format=3 uid="uid://bltixgbl138bh"]

[ext_resource type="Texture2D" uid="uid://d0hh63p64xi4k" path="res://assets/UI/DamageTypes/Slashing.png" id="1_dubsa"]
[ext_resource type="Script" path="res://scripts/damage/damage_type.gd" id="2_eyxkr"]

[resource]
script = ExtResource("2_eyxkr")
unique_id = "DamageType:Slashing"
type = 11
icon = ExtResource("1_dubsa")
name = "Slashing"
