[gd_resource type="Resource" script_class="ProjectileSpellEffect" load_steps=2 format=3 uid="uid://hpp88esp6irv"]

[ext_resource type="Script" path="res://scripts/spell/spell_effect/projectile_spell_effect.gd" id="1_slrd6"]

[resource]
script = ExtResource("1_slrd6")
flying_speed = 30.0
unique_id = "ProjectileSpellEffect:RayOfSickness"
saving_throw_characteristic = 2
need_attack_roll = false
damages = Array[Resource("res://scripts/damage/damage_source.gd")]([])
push_back_distance = 0
require_concentration = false
needs_line_of_sight = true
can_target_self = false
