[gd_scene load_steps=3 format=3 uid="uid://c3m2wl4gnn0xk"]

[ext_resource type="Texture2D" uid="uid://bgph2vp8lje4a" path="res://assets/UI/GameResource/SpellSlotActive.png" id="1_m4nf7"]
[ext_resource type="Script" path="res://scripts/creature/spell_level_icon.gd" id="2_wt3lp"]

[node name="Icon" type="TextureRect"]
offset_right = 10.0
offset_bottom = 10.0
scale = Vector2(2.67152, 3.49349)
size_flags_horizontal = 3
texture = ExtResource("1_m4nf7")
expand_mode = 5
stretch_mode = 5
script = ExtResource("2_wt3lp")

[node name="LevelLabel" type="Label" parent="."]
layout_mode = 1
anchors_preset = 15
anchor_right = 1.0
anchor_bottom = 1.0
grow_horizontal = 2
grow_vertical = 2
theme_type_variation = &"SpellLevel"
theme_override_font_sizes/font_size = 16
text = "III"
horizontal_alignment = 1
vertical_alignment = 1
