[gd_scene load_steps=5 format=3 uid="uid://cww6itjn4kli0"]

[ext_resource type="Script" path="res://scripts/creature/creation/health_dice.gd" id="1_e8r03"]
[ext_resource type="Texture2D" uid="uid://oqbydjry6hae" path="res://assets/UI/CreatureAttributes/HealthHeart.png" id="1_vkrjj"]
[ext_resource type="Script" path="res://addons/label_font_auto_sizer/label_auto_sizer.gd" id="2_358mu"]
[ext_resource type="Texture2D" uid="uid://dbiahwptwmwvd" path="res://assets/UI/BlueDice12.png" id="3_7pjjp"]

[node name="AspectRatioContainer" type="Control"]
custom_minimum_size = Vector2(32, 16)
layout_mode = 3
anchors_preset = 0
offset_left = -1.0
offset_right = 79.0
offset_bottom = 29.0
script = ExtResource("1_e8r03")

[node name="HealthDice" type="PanelContainer" parent="."]
layout_mode = 1
anchors_preset = 15
anchor_right = 1.0
anchor_bottom = 1.0
grow_horizontal = 2
grow_vertical = 2
size_flags_horizontal = 3
theme_type_variation = &"BordelessContainer"

[node name="HBoxContainer" type="HBoxContainer" parent="HealthDice"]
layout_mode = 2
alignment = 1

[node name="HeartIcon" type="TextureRect" parent="HealthDice/HBoxContainer"]
layout_mode = 2
size_flags_horizontal = 3
texture = ExtResource("1_vkrjj")
expand_mode = 3
stretch_mode = 5

[node name="DiceName" type="Label" parent="HealthDice/HBoxContainer"]
z_index = 1
custom_minimum_size = Vector2(5, 5)
layout_mode = 2
size_flags_horizontal = 3
size_flags_vertical = 1
theme_override_font_sizes/font_size = 4
text = "D12"
horizontal_alignment = 1
vertical_alignment = 1
autowrap_mode = 3
clip_text = true
script = ExtResource("2_358mu")
_max_steps = 7
_size_just_modified_by_autosizer = false
_set_defaults = true
_base_font_size = 4
_current_font_size = 4
_last_size_state = 1

[node name="DiceIcon" type="TextureRect" parent="HealthDice/HBoxContainer/DiceName"]
z_index = -1
layout_mode = 1
anchors_preset = 15
anchor_right = 1.0
anchor_bottom = 1.0
grow_horizontal = 2
grow_vertical = 2
texture = ExtResource("3_7pjjp")
expand_mode = 1
stretch_mode = 5
