[gd_scene load_steps=3 format=3 uid="uid://clf67dg33qm0o"]

[ext_resource type="PackedScene" uid="uid://cotx1nxm2gd8p" path="res://scenes/creature/character_sheet_element/creature_statistic_chip.tscn" id="1_mlehs"]
[ext_resource type="Script" path="res://scripts/creature/creature_sheet/statistics/battle_statistics.gd" id="1_wjx6y"]

[node name="BattleStatistics" type="HBoxContainer"]
alignment = 1
script = ExtResource("1_wjx6y")

[node name="STR" parent="." instance=ExtResource("1_mlehs")]
layout_mode = 2
size_flags_horizontal = 3
short_name = "STR"

[node name="DEX" parent="." instance=ExtResource("1_mlehs")]
layout_mode = 2
size_flags_horizontal = 3
short_name = "DEX"

[node name="CON" parent="." instance=ExtResource("1_mlehs")]
layout_mode = 2
size_flags_horizontal = 3
short_name = "CON"

[node name="INT" parent="." instance=ExtResource("1_mlehs")]
layout_mode = 2
size_flags_horizontal = 3
short_name = "INT"

[node name="WIS" parent="." instance=ExtResource("1_mlehs")]
layout_mode = 2
size_flags_horizontal = 3
short_name = "WIS"

[node name="CHA" parent="." instance=ExtResource("1_mlehs")]
layout_mode = 2
size_flags_horizontal = 3
short_name = "CHA"
