[gd_resource type="Resource" script_class="Weapon" load_steps=8 format=3 uid="uid://blxm2e0tr0hhm"]

[ext_resource type="SpriteFrames" uid="uid://dksloo3611j52" path="res://animations/hatchet_weapon_attacks.tres" id="1_40kmi"]
[ext_resource type="Script" path="res://scripts/item/weapons/weapon.gd" id="1_tghq1"]
[ext_resource type="Resource" uid="uid://b4pdi0u41pqho" path="res://resources/D6.tres" id="2_4gtmk"]
[ext_resource type="Script" path="res://scripts/damage/weapon_damage_source.gd" id="3_jayyd"]
[ext_resource type="Resource" uid="uid://bltixgbl138bh" path="res://resources/damage_types/slashing_damage.tres" id="3_p37p7"]
[ext_resource type="Texture2D" uid="uid://blp26jwj2oao7" path="res://assets/Weapons/Hatchet.png" id="3_putjs"]

[sub_resource type="Resource" id="Resource_bbcib"]
script = ExtResource("3_jayyd")
dices = Array[Resource("res://scripts/roll/dice.gd")]([ExtResource("2_4gtmk")])
flat_value = 0
type = ExtResource("3_p37p7")

[resource]
script = ExtResource("1_tghq1")
attack_range = 1.0
attack_animation = ExtResource("1_40kmi")
is_finesse = false
is_two_handed = false
damage_sources = Array[Resource("res://scripts/damage/damage_source.gd")]([SubResource("Resource_bbcib")])
creature_conditions = Array[Resource("res://scripts/creature_conditions/creature_condition_design.gd")]([])
unique_id = "Item:Weapon:Hatchet"
inventory_icon = ExtResource("3_putjs")
name = "Hatchet"
description = "A simple dwarven hatchet"
