[gd_resource type="Resource" script_class="RangeReactionCondition" load_steps=4 format=3 uid="uid://c6wtr7w3lauwy"]

[ext_resource type="Resource" uid="uid://b48gtxy1ql6ex" path="res://resources/actions/opportunity_attack.tres" id="1_53g6y"]
[ext_resource type="Script" path="res://scripts/creature_conditions/reaction_condition/range_reaction_condition.gd" id="1_hhplo"]
[ext_resource type="Script" path="res://scripts/creature_conditions/creature_condition.gd" id="2_fmyw2"]

[resource]
script = ExtResource("1_hhplo")
activate_on_range_enter = false
activate_on_range_left = true
when_owner_is_moving = false
reaction_range = 1.0
ask_confirmation = false
action = ExtResource("1_53g6y")
name = "Opportunity Attack Reaction"
turn_count = -1
condition_script = ExtResource("2_fmyw2")
description = "The creature can attack other creature that leave their range"
