[gd_resource type="Resource" script_class="CreatureActionDesign" load_steps=6 format=3 uid="uid://c1ajfmo7t7j0w"]

[ext_resource type="PackedScene" uid="uid://ci3rp76yj26kq" path="res://scenes/attack_configurator.tscn" id="1_0gmoj"]
[ext_resource type="Script" path="res://scripts/action/attack.gd" id="1_6p2ef"]
[ext_resource type="Resource" uid="uid://exl31plp44gn" path="res://resources/battle_resources/action.tres" id="2_5lwnq"]
[ext_resource type="Texture2D" uid="uid://bmwiv7f7fplal" path="res://assets/UI/Actions/Buttons/Type=AttackHatchet.png" id="2_5sipa"]
[ext_resource type="Script" path="res://scripts/action/resources/creature_action_design.gd" id="3_32ffl"]

[resource]
script = ExtResource("3_32ffl")
icon = ExtResource("2_5sipa")
configurator = ExtResource("1_0gmoj")
name = "Attack"
in_action_bar = true
cost = Array[Resource("res://scripts/creature/battle_resource.gd")]([ExtResource("2_5lwnq")])
action = ExtResource("1_6p2ef")
