[gd_resource type="Resource" script_class="DamageResistanceCondition" load_steps=5 format=3 uid="uid://bp76uif5ae4bn"]

[ext_resource type="Script" path="res://scripts/creature_conditions/damage_resistance_design.gd" id="1_3cg30"]
[ext_resource type="Resource" uid="uid://c71a0pok45a0e" path="res://resources/damage_types/poison_damage.tres" id="1_lrigi"]
[ext_resource type="Script" path="res://scripts/creature_conditions/creature_condition.gd" id="1_y37am"]
[ext_resource type="Texture2D" uid="uid://b7tybpjn6acl2" path="res://assets/UI/Resistances/Type=PoisonResistance.png" id="2_c42eo"]

[resource]
script = ExtResource("1_3cg30")
damage_type = ExtResource("1_lrigi")
resistance = true
immunity = false
vulnerability = false
portrait_icon = ExtResource("2_c42eo")
name = "Poison Resistance"
turn_count = -1
condition_script = ExtResource("1_y37am")
stacks = false
savable = false
description = "Poison damage against you are halved
"
