[gd_resource type="Resource" script_class="BattleResource" load_steps=3 format=3 uid="uid://cf70ush0726cq"]

[ext_resource type="Texture2D" uid="uid://mex1kct1hlcp" path="res://assets/UI/GameResource/BonusActionResourceIcon.png" id="1_h4pib"]
[ext_resource type="Script" path="res://scripts/creature/battle_resource.gd" id="2_dj2wq"]

[resource]
script = ExtResource("2_dj2wq")
every_turn = true
every_short_rest = false
every_long_rest = false
icon = ExtResource("1_h4pib")
name = "Bonus Action"
