[gd_resource type="Resource" script_class="SpellSlot" load_steps=4 format=3 uid="uid://ckoiion7gbd3j"]

[ext_resource type="Texture2D" uid="uid://bgph2vp8lje4a" path="res://assets/UI/GameResource/SpellSlotActive.png" id="1_bbdlp"]
[ext_resource type="Script" path="res://scripts/creature/spell_slot.gd" id="2_bvhb1"]
[ext_resource type="Texture2D" uid="uid://bo1gybgoy5a66" path="res://assets/UI/GameResource/SpellSlotEmpty.png" id="3_b0o81"]

[resource]
script = ExtResource("2_bvhb1")
level = 3
every_turn = false
every_short_rest = false
every_long_rest = true
icon = ExtResource("1_bbdlp")
spent_icon = ExtResource("3_b0o81")
name = "Level 2 Spell Slot"
